<?xml version="1.0" encoding="UTF-8" standalone="no"?>
<svg
   width="2560"
   height="1440"
   viewBox="0 0 677.33332 381.00002"
   version="1.1"
   id="svg8"
   inkscape:version="1.1 (c4e8f9e, 2021-05-24)"
   inkscape:export-filename="/home/yal/Pictures/Wallpapers/Debian/Debian_169_VerdunSky_Xfce_Wheel_2560x1440.png"
   inkscape:export-xdpi="96"
   inkscape:export-ydpi="96"
   sodipodi:docname="DebianXfce_CelloTurquoise.svg"
   xmlns:inkscape="http://www.inkscape.org/namespaces/inkscape"
   xmlns:sodipodi="http://sodipodi.sourceforge.net/DTD/sodipodi-0.dtd"
   xmlns="http://www.w3.org/2000/svg"
   xmlns:svg="http://www.w3.org/2000/svg"
   xmlns:rdf="http://www.w3.org/1999/02/22-rdf-syntax-ns#"
   xmlns:cc="http://creativecommons.org/ns#"
   xmlns:dc="http://purl.org/dc/elements/1.1/"
   xmlns:i="http://ns.adobe.com/AdobeIllustrator/10.0/">
  <defs
     id="defs2">
    <linearGradient
       id="linearGradient1201">
      <stop
         id="stop1197"
         style="stop-color:#9cdcef;stop-opacity:1"
         offset="0" />
      <stop
         id="stop1199"
         style="stop-color:#00aade;stop-opacity:1"
         offset="1" />
    </linearGradient>
    <clipPath
       clipPathUnits="userSpaceOnUse"
       id="clipPath1183">
      <rect
         style="fill:#a0892c;stroke-width:0.264583"
         id="rect1185"
         width="677.33331"
         height="381"
         x="0"
         y="0" />
    </clipPath>
    <linearGradient
       id="linearGradient22547">
      <stop
         id="stop22541"
         style="stop-color:#adcdff;stop-opacity:1"
         offset="0" />
      <stop
         id="stop22543"
         style="stop-color:#7fd4ee"
         offset="0.25667763" />
      <stop
         id="stop22545"
         style="stop-color:#00aade;stop-opacity:1"
         offset="1" />
    </linearGradient>
  </defs>
  <sodipodi:namedview
     id="base"
     pagecolor="#5a5a5a"
     bordercolor="#ffffff"
     borderopacity="1"
     inkscape:pageopacity="0"
     inkscape:pageshadow="2"
     inkscape:zoom="256"
     inkscape:cx="2558.5"
     inkscape:cy="21.666016"
     inkscape:document-units="mm"
     inkscape:current-layer="g883"
     inkscape:document-rotation="0"
     showgrid="false"
     inkscape:showpageshadow="false"
     units="px"
     inkscape:pagecheckerboard="0"
     inkscape:snap-bbox="true"
     inkscape:snap-page="true"
     showguides="true"
     inkscape:guide-bbox="true"
     inkscape:window-width="2505"
     inkscape:window-height="1416"
     inkscape:window-x="1135"
     inkscape:window-y="215"
     inkscape:window-maximized="1"
     width="2560px"
     inkscape:snap-global="false">
    <inkscape:grid
       type="xygrid"
       id="grid23365" />
    <sodipodi:guide
       position="379.10333,79.048586"
       orientation="0,-1"
       id="guide891" />
    <sodipodi:guide
       position="397.86183,179.1948"
       orientation="0,-1"
       id="guide893" />
  </sodipodi:namedview>
  <metadata
     id="metadata5">
    <rdf:RDF>
      <cc:Work
         rdf:about="">
        <dc:format>image/svg+xml</dc:format>
        <dc:type
           rdf:resource="http://purl.org/dc/dcmitype/StillImage" />
      </cc:Work>
    </rdf:RDF>
  </metadata>
  <g
     inkscape:label="Layer 1"
     inkscape:groupmode="layer"
     id="layer1">
    <g
       id="g883"
       clip-path="url(#clipPath1183)"
       style="display:inline;mix-blend-mode:normal"
       inkscape:export-filename="/home/yal/Pictures/Wallpapers/Debian/Debian_169_Orange_Xfce_Wheel_2560x1440.png"
       inkscape:export-xdpi="96"
       inkscape:export-ydpi="96">
      <rect
         style="display:inline;fill:#163659;fill-opacity:1;stroke-width:6.68997;stroke-miterlimit:1;paint-order:fill markers stroke"
         id="rect1072-9"
         width="677.33301"
         height="381"
         x="-2.8421709e-14"
         y="1.4210855e-14"
         ry="0" />
      <path
         i:knockout="Off"
         fill="#a80030"
         d="m 598.91261,172.70628 c 0.83947,22.91902 -6.57601,34.05593 -13.2826,53.74964 l -12.06077,6.0997 c -9.85927,19.48496 0.97947,12.37017 -6.0816,27.86139 -15.40921,13.91658 -46.69418,43.53289 -56.71213,46.24595 -7.32217,-0.161 4.95297,-8.7843 6.55739,-12.15195 -20.60472,14.38132 -16.53796,21.59092 -48.05612,30.34678 l -0.91411,-2.09643 c -77.69928,37.18648 -185.63884,-36.49394 -184.22114,-137.0113 -0.82089,6.37473 -2.3599,4.78101 -4.07611,7.34233 C 276.05445,141.3823 303.55246,89.444498 349.92956,68.204518 395.28989,45.380391 448.46676,54.733902 480.93638,85.55514 463.10187,61.78226 427.57292,36.577023 385.49589,38.910693 c -41.23764,0.682963 -79.82614,27.330118 -92.69828,56.27296 -21.11776,13.518177 -23.58028,52.137127 -32.7773,59.213897 -12.39649,92.58678 23.29113,132.57182 83.66899,179.6336 9.47692,6.5076 2.66775,7.50364 3.9363,12.45555 -20.05444,-9.54327 -38.41134,-23.96258 -53.52211,-41.61665 8.02172,11.92441 16.66856,23.51673 27.85232,32.62367 -18.92576,-6.49819 -44.19437,-46.60653 -51.55388,-48.23815 32.60015,59.3656 132.2475,104.11267 184.45435,81.90512 -24.15864,0.91074 -54.83728,0.50284 -81.96207,-9.69508 -11.4264,-5.96682 -26.90095,-18.3086 -24.1306,-20.61376 71.22589,27.04548 144.78374,20.4715 206.40231,-29.75869 15.68908,-12.42714 32.81469,-33.5533 37.76766,-33.83782 -7.45285,11.4026 1.27773,5.48311 -4.44937,15.54811 15.5959,-25.62263 -6.79987,-10.4349 16.13689,-44.24433 l 8.4695,11.85789 c -3.17141,-21.28733 25.97741,-47.10918 23.01125,-80.74777 6.68795,-10.28329 7.45284,11.08001 0.36397,34.73896 9.84053,-26.24869 2.60223,-30.4701 5.12072,-52.13697 2.71445,7.28554 6.3243,15.01691 8.1618,22.71042 -6.41742,-25.37605 6.55721,-42.71708 9.78467,-57.46843 -3.19006,-1.42293 -9.89661,11.21284 -11.44507,-18.745 0.23322,-13.01534 3.57255,-6.82068 4.8504,-10.0271 -2.49981,-1.47047 -9.09441,-11.450009 -13.09592,-30.583973 2.88216,-4.50605 7.76057,11.658652 11.71553,12.313224 -2.5465,-15.206574 -6.92111,-26.808446 -7.10773,-38.486149 -11.56629,-24.569602 -4.09479,3.282284 -13.45977,-10.548778 -12.31258,-39.0267596 10.20443,-9.05951 11.73413,-26.7800217 18.63656,27.4630297 29.26085,70.0567317 34.15792,87.6918907 -3.73104,-21.505536 -9.74743,-42.347115 -17.10693,-62.505578 5.68053,2.438032 -9.13177,-44.234834 7.37812,-13.328393 -17.61991,-65.882704 -75.34879,-127.449162 -128.46971,-156.325482 6.48267,6.04266 14.6817,13.63183 11.75278,14.82713 -26.43446,-15.98452 -21.78932,-17.2462 -25.57634,-24.00056 -21.50032,-8.9076 -22.93668,0.73051 -37.16144,0.0189 -40.57529,-21.89452 -48.39183,-19.57042 -85.73047,-33.26866 l 1.69765,8.08232 c -26.87286,-9.10684 -31.31284,3.4341 -60.34988,0.0189 -1.76294,-1.39437 9.30901,-5.08465 18.43144,-6.42227 -25.98691,3.49108 -24.77431,-5.2175 -50.20147,0.95818 6.2589,-4.46815 12.90012,-7.43731 19.57878,-11.23183 -21.18303,1.30911 -50.59312,12.54093 -41.51739,2.31465 -34.55903,15.69038 -95.94426,37.70818 -130.39122,70.55952 l -1.08199,-7.36175 c -15.78241,19.26683 -68.828796,57.544208 -73.054203,82.521778 l -4.225451,0.996079 C 72.655714,-27.655723 67.329661,-11.633229 60.819024,2.9093473 50.082782,21.531074 45.073809,10.081112 46.603618,13.002853 25.476477,56.564231 14.964167,93.162523 5.9070228,123.19632 12.361845,133.01477 6.065429,182.31525 8.5000978,221.769 -2.0960443,416.65663 142.98633,605.862 301.57504,649.53719 c 23.24452,8.47128 57.80337,8.16771 87.20423,9.00247 -34.68026,-10.09351 -39.15751,-5.34074 -72.96095,-17.32203 -24.37316,-11.68716 -29.70862,-25.01552 -46.98338,-40.26004 l 6.83719,12.28484 C 241.8128,601.0525 255.98148,598.15915 228.42752,589.28938 l 7.30352,-9.68546 c -10.97863,-0.85381 -29.07426,-18.80196 -34.01786,-28.77218 l -12.01402,0.4839 C 175.2786,533.23461 167.58324,520.17197 168.15222,510.04997 l -3.88026,7.03895 c -4.39334,-7.6745 -53.08364,-67.90346 -27.82441,-53.88252 -4.69174,-4.34481 -10.93205,-7.08636 -17.69457,-19.5988 l 5.13952,-5.96696 c -12.13517,-15.90865 -22.36767,-36.29476 -21.58416,-43.08701 6.48267,8.89814 10.97866,10.56778 15.43722,12.09507 -30.69725,-77.44653 -32.422832,-4.25928 -55.658005,-78.83157 l 4.906253,-0.39849 c -3.759039,-5.79619 -6.062981,-12.04767 -9.085103,-18.20425 l 2.145408,-21.67631 C 37.966146,261.5833 53.879188,177.06943 57.078594,130.72858 59.270594,111.88867 75.519336,91.825093 87.859847,60.358939 L 80.341734,59.049701 C 94.724931,33.550427 162.44371,-43.393393 193.82205,-39.447074 c 15.19468,-19.409059 -3.02231,-0.07624 -5.99779,-4.95184 33.38365,-35.128011 43.87727,-24.816257 66.40363,-31.143785 24.27976,-14.656297 -20.84739,5.729752 -9.33702,-5.587382 42.00238,-10.899799 29.75517,-24.797409 84.53651,-30.327899 5.78326,3.33922 -13.40379,5.16059 -18.21686,9.4958 34.97869,-17.41692 110.70993,-13.44211 159.92263,9.657148 57.05726,27.140406 121.2035,107.328514 123.74059,182.773545 l 2.88222,0.78739 c -1.45508,29.995877 4.51471,64.687427 -5.84835,96.542677 l 7.00508,-15.0928"
         id="path14-3-3"
         style="opacity:1;mix-blend-mode:normal;fill:#85e6ec;fill-opacity:1;stroke-width:0.323486"
         inkscape:export-filename="/home/yal/Pictures/Wallpapers/Debian/Debian_169_CelloTurquoise_Xfce_Wheel_2560x1440.png"
         inkscape:export-xdpi="96"
         inkscape:export-ydpi="96" />
      <g
         id="g42-3"
         style="display:inline;fill:#85e6ec;fill-opacity:1;stroke-width:0.431239"
         transform="matrix(0.40983386,0,0,0.40983386,136.03871,230.74954)"
         inkscape:label="Logo Debian"
         inkscape:export-filename="/home/yal/Pictures/Wallpapers/Debian/Debian_169_CelloTurquoise_Xfce_Wheel_2560x1440.png"
         inkscape:export-xdpi="96"
         inkscape:export-ydpi="96">
        <path
           i:knockout="Off"
           fill="#a80030"
           d="m 60.969,47.645 c -1.494,0.02 0.281,0.768 2.232,1.069 0.541,-0.422 1.027,-0.846 1.463,-1.26 -1.213,0.297 -2.449,0.304 -3.695,0.191"
           id="path4-6"
           style="fill:#85e6ec;fill-opacity:1;stroke-width:0.245516" />
        <path
           i:knockout="Off"
           fill="#a80030"
           d="m 68.986,45.646 c 0.893,-1.229 1.541,-2.573 1.77,-3.963 -0.201,0.99 -0.736,1.845 -1.244,2.749 -2.793,1.759 -0.264,-1.044 -0.002,-2.111 -3.002,3.783 -0.414,2.268 -0.524,3.325"
           id="path6-7"
           style="fill:#85e6ec;fill-opacity:1;stroke-width:0.245516" />
        <path
           i:knockout="Off"
           fill="#a80030"
           d="m 71.949,37.942 c 0.182,-2.691 -0.529,-1.839 -0.768,-0.814 0.278,0.146 0.499,1.898 0.768,0.814"
           id="path8-5"
           style="fill:#85e6ec;fill-opacity:1;stroke-width:0.245516" />
        <path
           i:knockout="Off"
           fill="#a80030"
           d="m 55.301,1.163 c 0.798,0.142 1.724,0.252 1.591,0.443 0.876,-0.193 1.073,-0.367 -1.591,-0.443"
           id="path10-3"
           style="fill:#85e6ec;fill-opacity:1;stroke-width:0.245516" />
        <path
           i:knockout="Off"
           fill="#a80030"
           d="M 56.893,1.606 56.332,1.723 56.855,1.675 56.893,1.606"
           id="path12-5"
           style="fill:#85e6ec;fill-opacity:1;stroke-width:0.245516" />
        <path
           i:knockout="Off"
           fill="#a80030"
           d="m 109.74785,-0.9343305 c 0.1701,4.566135 -1.33242,6.784943 -2.69129,10.708493 l -2.44372,1.2152425 c -1.99768,3.88197 0.19845,2.464503 -1.23225,5.550801 -3.12221,2.772566 -9.461096,8.67301 -11.490909,9.213537 -1.483616,-0.03213 1.003567,-1.750099 1.328633,-2.421034 -4.174907,2.865174 -3.350886,4.301541 -9.737049,6.04597 L 83.29605,28.960999 C 67.552714,36.369628 45.682139,21.690337 45.969413,1.6643595 c -0.166316,1.270051 -0.478159,0.952538 -0.825911,1.462826 -0.812681,-10.3021515 4.75891,-20.6496625 14.155772,-24.8812745 9.190858,-4.547235 19.965499,-2.683738 26.544437,3.45673 -3.613597,-4.736231 -10.81244,-9.757844 -19.338033,-9.292915 -8.355497,0.136077 -16.174246,5.444964 -18.782386,11.21122 -4.278861,2.693188 -4.777809,10.3872 -6.641306,11.797108 -2.511752,18.445974 4.719221,26.41214 16.952908,35.788213 1.920195,1.29651 0.540527,1.494956 0.797561,2.481513 -4.063406,-1.901296 -7.78284,-4.77403 -10.844569,-8.291238 1.625362,2.375675 3.377352,4.685201 5.64341,6.499559 -3.834722,-1.29462 -8.954613,-9.285355 -10.445789,-9.610428 6.605397,11.827347 26.7958,20.742271 37.373886,16.317883 -4.894987,0.181436 -11.111053,0.100168 -16.607046,-1.931535 -2.315197,-1.188783 -5.450634,-3.647616 -4.889317,-4.106875 14.431706,5.388265 29.335902,4.078525 41.82093,-5.928793 3.1789,-2.475843 6.64886,-6.684776 7.65243,-6.741474 -1.51007,2.271727 0.25893,1.092394 -0.90151,3.097638 3.16001,-5.104772 -1.37778,-2.078952 3.26963,-8.814756 l 1.71608,2.362445 c -0.64259,-4.241062 5.26352,-9.3855235 4.66252,-16.0873085 1.3551,-2.0487125 1.51007,2.207469 0.0737,6.92102 1.9939,-5.229509 0.52729,-6.070539 1.03758,-10.3872005 0.54998,1.451487 1.28139,2.9918015 1.65371,4.5245565 -1.30029,-5.0556335 1.32864,-8.5104735 1.98257,-11.4493555 -0.64637,-0.283494 -2.00524,2.233928 -2.31898,-3.734554 0.0473,-2.59302 0.72386,-1.358879 0.98278,-1.997684 -0.50651,-0.292943 -1.84271,-2.281177 -2.6535,-6.093219 0.584,-0.897729 1.57244,2.322756 2.37379,2.453163 -0.51596,-3.0296 -1.40235,-5.341016 -1.44015,-7.667552 -2.34355,-4.894987 -0.82969,0.653924 -2.72721,-2.101632 -2.49474,-7.77528 2.06761,-1.804908 2.37757,-5.335346 3.77613,5.471423 5.92879,13.957327 6.92102,17.470756 -0.75598,-4.284531 -1.97501,-8.436765 -3.46618,-12.452922 1.15098,0.485718 -1.85027,-8.812866 1.49495,-2.655389 -3.57012,-13.125746 -15.26706,-25.391562 -26.030358,-31.144589 1.313516,1.203902 2.974778,2.715867 2.381342,2.954002 -5.356124,-3.184577 -4.414928,-3.435941 -5.182244,-4.78159 -4.356344,-1.774669 -4.647398,0.145527 -7.529581,0.0038 -8.22131,-4.362019 -9.805093,-3.89898 -17.370588,-6.628077 l 0.343972,1.610243 c -5.444964,-1.814358 -6.344584,0.684164 -12.228018,0.0038 -0.357201,-0.277823 1.886177,-1.013016 3.734554,-1.2795 -5.265418,0.695504 -5.019724,-1.039476 -10.171745,0.190885 1.268161,-0.890169 2.61381,-1.481725 3.967019,-2.237708 -4.292091,0.260814 -10.251123,2.498522 -8.412196,0.461149 -7.002288,3.125988 -19.44009,7.512577 -26.419699,14.057495 l -0.219235,-1.466606 c -3.197796,3.838461 -13.9459758,11.464435 -14.8021258,16.44069 l -0.8561497,0.198445 c -1.6612714,2.817925 -2.7404364,6.010061 -4.05962595,8.907364 -2.17533975,3.709984 -3.19024635,1.428807 -2.88029345,2.010913 -4.2807511,8.678679 -6.4107315,15.970131 -8.2458791,21.953732 1.3078496,1.956105 0.03213,11.7782085 0.5254076,19.6385365 C -12.027674,47.667787 17.368704,85.362966 49.501741,94.064313 c 4.709771,1.68774 11.712059,1.62726 17.669201,1.79357 -7.026857,-2.01091 -7.934036,-1.06404 -14.783238,-3.45106 -4.938456,-2.32842 -6.019511,-4.983807 -9.51971,-8.020967 l 1.385338,2.44749 c -6.860541,-2.42859 -3.989697,-3.00503 -9.572628,-4.77214 l 1.479836,-1.92964 c -2.224479,-0.1701 -5.890994,-3.745897 -6.892671,-5.732237 l -2.434264,0.0964 c -2.921872,-3.60226 -4.481086,-6.20473 -4.365799,-8.22131 l -0.786222,1.40234 c -0.890169,-1.52898 -10.755741,-13.528312 -5.637739,-10.734957 -0.950648,-0.8656 -2.215029,-1.411797 -3.585247,-3.90465 L 13.499963,51.84837 C 11.041131,48.678913 8.9678493,44.617397 9.1266053,43.264188 10.440125,45.036967 11.351084,45.3696 12.254483,45.673883 6.0346382,30.244279 5.6849962,44.825292 0.97711555,29.968346 L 1.9712326,29.888966 C 1.2095802,28.734202 0.74276095,27.488721 0.13041515,26.26214 l 0.4346899,-4.318551 C -3.9103115,16.772671 -0.686046,-0.0649505 -0.03779095,-9.297387 0.40634875,-13.05084 3.6986528,-17.048098 6.1990642,-23.317083 L 4.6757595,-23.577897 C 7.5900719,-28.6581 21.311153,-43.987535 27.668966,-43.201313 c 3.078739,-3.86685 -0.612346,-0.01512 -1.215242,-0.986557 6.764154,-6.998508 8.890354,-4.944125 13.454599,-6.204726 4.919556,-2.919983 -4.224052,1.141534 -1.891846,-1.113184 8.510473,-2.17156 6.02896,-4.940346 17.128674,-6.042191 1.171772,0.665265 -2.715868,1.028137 -3.691085,1.891847 7.087336,-3.46996 22.431891,-2.678068 32.403301,1.923975 11.560853,5.407165 24.558063,21.382965 25.072133,36.413787 l 0.584,0.156867 c -0.29483,5.976041 0.91474,12.887612 -1.185,19.2340855 l 1.41935,-3.006921"
           id="path14-6"
           style="fill:#85e6ec;fill-opacity:1;stroke-width:0.245515" />
        <path
           i:knockout="Off"
           fill="#a80030"
           d="m 44.658,49.695 -0.211,1.047 c 0.983,1.335 1.763,2.781 3.016,3.821 -0.902,-1.759 -1.571,-2.486 -2.805,-4.868"
           id="path16-2"
           style="fill:#85e6ec;fill-opacity:1;stroke-width:0.245516" />
        <path
           i:knockout="Off"
           fill="#a80030"
           d="m 46.979,49.605 c -0.52,-0.576 -0.826,-1.268 -1.172,-1.956 0.33,1.211 1.006,2.252 1.633,3.312 l -0.461,-1.356"
           id="path18-9"
           style="fill:#85e6ec;fill-opacity:1;stroke-width:0.245516" />
        <path
           i:knockout="Off"
           fill="#a80030"
           d="m 88.063,40.675 -0.219,0.552 c -0.402,2.858 -1.273,5.686 -2.605,8.309 1.472,-2.767 2.421,-5.794 2.824,-8.861"
           id="path20-1"
           style="fill:#85e6ec;fill-opacity:1;stroke-width:0.245516" />
        <path
           i:knockout="Off"
           fill="#a80030"
           d="M 55.598,0.446 C 56.607,0.077 58.08,0.243 59.154,0 57.756,0.117 56.365,0.187 54.992,0.362 l 0.606,0.084"
           id="path22-2"
           style="fill:#85e6ec;fill-opacity:1;stroke-width:0.245516" />
        <path
           i:knockout="Off"
           fill="#a80030"
           d="m 20.127,19.308 c 0.233,2.154 -1.62,2.991 0.41,1.569 1.09,-2.454 -0.424,-0.677 -0.41,-1.569"
           id="path24-7"
           style="fill:#85e6ec;fill-opacity:1;stroke-width:0.245516" />
        <path
           i:knockout="Off"
           fill="#a80030"
           d="m 17.739,29.282 c 0.469,-1.437 0.553,-2.299 0.732,-3.132 -1.293,1.654 -0.596,2.007 -0.732,3.132"
           id="path26-0"
           style="fill:#85e6ec;fill-opacity:1;stroke-width:0.245516" />
      </g>
      <g
         id="g23435-9"
         transform="matrix(0.8818766,0,0,0.8818766,49.493785,114.83289)"
         style="display:inline;opacity:1;mix-blend-mode:normal;fill:#85e6ec;fill-opacity:1;stroke-width:0.757452"
         inkscape:label="Debian"
         inkscape:export-filename="/home/yal/Pictures/Wallpapers/Debian/Debian_169_CelloTurquoise_Xfce_Wheel_2560x1440.png"
         inkscape:export-xdpi="96"
         inkscape:export-ydpi="96">
        <g
           id="g23316-3"
           transform="matrix(0.71183119,0,0,0.71183119,86.183009,110.84407)"
           style="fill:#85e6ec;fill-opacity:1;stroke-width:1.06409">
          <path
             i:knockout="Off"
             fill="#a80030"
             d="m 66.926,111.533 -3.838,3.836 -3.836,-3.836 3.836,-3.836 3.838,3.836"
             id="path40-6"
             style="fill:#85e6ec;fill-opacity:1;stroke-width:0.344908" />
          <path
             i:knockout="Off"
             d="m 108.063,139.268 c 0.047,1.576 0.047,3.244 0.695,4.588 -1.021,-0.092 -1.623,-0.232 -3.521,-0.232 -1.113,0 -1.715,0.094 -2.596,0.232 0.184,-0.602 0.279,-0.834 0.371,-1.623 0.139,-1.064 0.232,-4.633 0.232,-5.885 v -5.004 c 0,-2.178 0,-5.33 -0.141,-6.441 -0.092,-0.787 -0.322,-2.918 -3.012,-2.918 -2.641,0 -3.521,1.945 -3.846,3.521 -0.369,1.621 -0.369,3.383 -0.369,10.24 0.045,5.932 0.045,6.486 0.508,8.109 -0.787,-0.092 -1.76,-0.184 -3.15,-0.184 -1.113,0 -1.854,0.045 -2.779,0.184 0.324,-0.742 0.51,-1.113 0.602,-3.707 0.094,-2.549 0.279,-15.061 -0.141,-18.025 -0.23,-1.809 -0.695,-2.225 -1.203,-2.688 3.754,-0.186 4.957,-0.789 6.117,-1.389 v 4.91 c 0.555,-1.438 1.713,-4.635 6.348,-4.635 5.793,0 5.838,4.217 5.885,6.996 v 13.951"
             id="path38-0"
             style="fill:#85e6ec;fill-opacity:1;stroke-width:0.605815" />
          <path
             i:knockout="Off"
             d="m 81.373,130.74 c -0.092,2.92 -0.139,4.959 -0.928,6.58 -0.973,2.086 -2.594,2.688 -3.799,2.688 -2.783,0 -3.383,-2.316 -3.383,-4.586 0,-4.355 3.893,-4.682 5.652,-4.682 z m -12.744,5.701 c 0,2.92 0.881,5.838 3.477,7.09 1.158,0.51 2.316,0.51 2.688,0.51 4.264,0 5.699,-3.152 6.58,-5.098 -0.047,2.039 0,3.289 0.139,4.912 0.834,-0.047 1.668,-0.139 3.059,-0.139 0.787,0 1.529,0.092 2.316,0.139 -0.51,-0.787 -0.787,-1.252 -0.928,-3.059 -0.092,-1.76 -0.092,-3.521 -0.092,-5.977 l 0.047,-9.453 c 0,-3.523 -0.928,-6.998 -7.879,-6.998 -4.586,0 -7.273,1.391 -8.617,2.086 0.557,1.02 1.02,1.898 1.436,3.893 1.809,-1.576 4.172,-2.41 6.58,-2.41 3.848,0 3.848,2.549 3.848,6.162 -0.881,-0.045 -1.623,-0.137 -2.875,-0.137 -5.887,10e-4 -9.779,2.268 -9.779,8.479"
             id="path36-6"
             style="fill:#85e6ec;fill-opacity:1;stroke-width:0.605815" />
          <path
             i:knockout="Off"
             d="m 66.535,143.855 c -0.928,-0.139 -1.578,-0.232 -2.922,-0.232 -1.48,0 -2.502,0.094 -3.566,0.232 0.463,-0.881 0.648,-1.299 0.787,-4.309 0.186,-4.125 0.232,-15.154 -0.092,-17.471 -0.232,-1.762 -0.648,-2.039 -1.297,-2.502 3.799,-0.371 4.865,-0.648 6.625,-1.482 -0.369,2.037 -0.418,3.059 -0.418,6.162 -0.091,15.989 -0.138,17.702 0.883,19.602"
             id="path34-2"
             style="fill:#85e6ec;fill-opacity:1;stroke-width:0.605815" />
          <path
             i:knockout="Off"
             d="m 52.715,131.066 c 0,4.309 -0.787,10.102 -6.162,10.102 -0.742,0 -1.668,-0.141 -2.27,-0.279 -0.093,-1.668 -0.093,-4.541 -0.093,-7.877 0,-3.986 0.416,-6.068 0.742,-7.09 0.972,-3.289 3.15,-3.334 3.566,-3.334 3.522,0 4.217,4.865 4.217,8.478 z m -13.298,5.051 c 0,3.43 0,5.375 -0.556,6.857 1.9,0.742 4.262,1.158 7.09,1.158 1.807,0 7.043,0 9.869,-5.791 1.344,-2.688 1.807,-6.303 1.807,-9.037 0,-1.668 -0.186,-5.328 -1.529,-7.646 -1.296,-2.176 -3.382,-3.289 -5.605,-3.289 -4.449,0 -5.746,3.707 -6.44,5.607 0,-2.363 0.045,-10.611 0.415,-14.828 -3.011,1.391 -4.866,1.621 -6.857,1.807 1.807,0.74 1.807,3.801 1.807,13.764 v 11.398"
             id="path32-6"
             style="fill:#85e6ec;fill-opacity:1;stroke-width:0.605815" />
          <path
             i:knockout="Off"
             d="m 25.13,128.609 c 0.047,-3.846 0.835,-7.275 4.124,-7.275 3.615,0 3.891,3.984 3.799,7.275 z m 12.51,0.465 c 0,-5.422 -1.065,-10.752 -7.923,-10.752 -9.452,0 -9.452,10.475 -9.452,12.697 0,9.406 4.216,13.113 11.306,13.113 3.149,0 4.68,-0.461 5.514,-0.695 -0.046,-1.668 0.185,-2.734 0.465,-4.17 -0.975,0.604 -2.226,1.391 -5.006,1.391 -7.229,0 -7.322,-6.582 -7.322,-8.852 H 37.55 l 0.09,-2.732"
             id="path30-1"
             style="fill:#85e6ec;fill-opacity:1;stroke-width:0.605815" />
          <path
             i:knockout="Off"
             d="m 13.437,125.506 c -0.045,0.047 -0.045,7.506 -0.138,9.453 -0.092,1.574 -0.232,4.957 -3.568,4.957 -3.429,0 -4.263,-3.939 -4.541,-5.652 -0.324,-1.9 -0.324,-3.477 -0.324,-4.17 0,-2.225 0.139,-8.436 5.375,-8.436 1.576,0 2.456,0.465 3.151,0.834 z M 0,130.975 c 0,13.066 6.951,13.066 7.97,13.066 2.873,0 4.727,-1.576 5.514,-4.309 l 0.093,4.123 c 0.881,-0.047 1.761,-0.139 3.197,-0.139 0.51,0 0.926,0 1.298,0.047 0.371,0 0.741,0.045 1.158,0.092 -0.741,-1.482 -1.297,-4.818 -1.297,-12.049 0,-7.043 0,-18.951 0.602,-22.566 -1.667,0.789 -3.105,1.299 -6.256,1.576 1.251,1.344 1.251,2.039 1.251,8.154 -0.879,-0.277 -1.992,-0.602 -3.892,-0.602 C 1.344,118.369 0,125.598 0,130.975"
             id="path28-8"
             style="fill:#85e6ec;fill-opacity:1;stroke-width:0.605815" />
        </g>
      </g>
      <path
         d="m 439.73413,274.49994 c -0.344,0.59386 6.11174,0.8218 16.93127,-0.86058 10.82018,-1.68234 28.26035,0.0884 28.20618,2.11522 -0.41202,5.66608 0.81063,11.41878 6.8736,18.84062 1.07221,1.30346 -1.87419,6.48235 -0.245,8.44216 1.26397,1.47648 3.98531,-4.64283 4.88919,-4.30899 1.01531,0.96713 1.74026,8.54186 3.13557,8.26866 0.98535,-0.25785 3.94318,-11.92955 4.44261,-12.06759 14.32254,-3.67588 28.4126,-15.97728 28.64733,-16.27798 -0.0673,-0.0463 14.55687,-1.51954 15.1529,-2.76382 0.85632,-4.2068 -8.65737,-3.6396 -8.37523,-5.88684 0.0454,-1.11451 10.59708,-2.34241 10.37857,-3.62084 -0.49065,-2.14509 -7.18979,-3.21078 -8.52881,-3.91866 -1.19985,-0.67375 -2.31443,-2.25441 -1.45696,-4.18947 0.85807,-1.93542 12.52435,-16.94865 9.16318,-21.05828 -6.05115,-7.50134 -24.54974,2.97959 -25.25953,2.46967 -0.33354,-0.23944 -6.2635,-12.17463 -10.29058,-6.86567 -2.52649,3.19106 4.50732,8.8265 5.28532,9.63432 0.7167,0.74346 -0.98473,1.64255 -1.52386,1.45232 -1.20419,-0.42572 -8.0555,-6.60004 -9.93433,-3.61986 -2.51701,4.37463 4.97956,8.73785 4.35347,9.40572 -0.92617,1.63131 0.31319,3.49846 0.1345,5.7361 -0.24352,3.77466 -16.45958,8.27761 -21.10151,10.71974 -3.39531,1.79288 -4.89594,6.36741 -5.39918,6.20465 -6.41364,-1.57831 -18.88951,-3.54227 -29.33741,-0.37195 -5.90777,1.69761 -15.86922,2.28726 -16.14116,2.52176 z m 96.83069,-48.67722 c -0.22321,0.31356 2.36412,7.33446 3.1276,7.26377 0.75968,0.0743 -2.41156,-7.19827 -3.09941,-7.25687 -0.0134,-0.005 -0.0207,-0.0171 -0.0282,-0.007 z m 5.00572,-1.85547 c -0.69314,0.40292 -0.80864,8.46002 0.41137,8.57326 0.75967,0.0743 0.01,-8.50221 -0.34796,-8.58765 -0.0235,-0.003 -0.0411,0.001 -0.0635,0.0139 z m -13.40832,17.86127 c 0.86605,-0.52482 2.0435,-0.15849 2.64104,0.82757 0.59753,0.98605 0.38794,2.21694 -0.47809,2.74176 -0.86605,0.52481 -2.05414,0.14088 -2.65169,-0.84517 -0.59752,-0.98607 -0.3773,-2.19935 0.48874,-2.72416 z m -2.86663,3.20353 c 2.40883,2.47203 3.99036,2.75564 7.05526,0.77296 -1.76475,6.04888 -7.94644,1.27411 -7.05526,-0.77296 z m 12.96496,2.43244 c 0.23507,-0.16975 0.44778,-0.24568 0.61965,-0.20721 1.90842,-0.3811 -4.56231,7.61994 -4.87283,7.23193 -0.25924,-0.24007 2.60782,-5.83577 4.25318,-7.0247 z m 2.17054,1.28097 c 0.0815,-0.0587 0.17768,-0.0798 0.26053,-0.0858 2.36617,0.57238 -1.81512,7.55447 -1.81514,7.39832 -0.6774,9.7e-4 0.3303,-6.43438 1.55457,-7.31255 z"
         id="path1185-7"
         style="display:inline;fill:#85e6ec;fill-opacity:1;fill-rule:evenodd;stroke:none;stroke-width:0.176412;stroke-opacity:1"
         inkscape:label="Xfce Mascot"
         inkscape:export-filename="/home/yal/Pictures/Wallpapers/Debian/Debian_169_Lime_Xfce_Wheel_2560x1440.png"
         inkscape:export-xdpi="96"
         inkscape:export-ydpi="96" />
    </g>
  </g>
</svg>
