<?xml version="1.0" encoding="UTF-8" standalone="no"?>
<svg
   width="1440"
   height="2560"
   viewBox="0 0 1440 2560"
   version="1.1"
   id="SVGRoot"
   sodipodi:docname="DebianXfce_Lavender_Portrait.svg"
   inkscape:version="1.1 (c4e8f9e, 2021-05-24)"
   inkscape:export-filename="/home/yal/Pictures/Wallpapers/Debian/Xfce_Portrait_CelloTurquoise.png"
   inkscape:export-xdpi="96"
   inkscape:export-ydpi="96"
   xmlns:inkscape="http://www.inkscape.org/namespaces/inkscape"
   xmlns:sodipodi="http://sodipodi.sourceforge.net/DTD/sodipodi-0.dtd"
   xmlns:xlink="http://www.w3.org/1999/xlink"
   xmlns="http://www.w3.org/2000/svg"
   xmlns:svg="http://www.w3.org/2000/svg"
   xmlns:rdf="http://www.w3.org/1999/02/22-rdf-syntax-ns#"
   xmlns:cc="http://creativecommons.org/ns#"
   xmlns:dc="http://purl.org/dc/elements/1.1/"
   xmlns:i="http://ns.adobe.com/AdobeIllustrator/10.0/">
  <defs
     id="defs63">
    <linearGradient
       id="linearGradient995">
      <stop
         id="stop989"
         style="stop-color:#ffc058;stop-opacity:1"
         offset="0" />
      <stop
         id="stop991"
         style="stop-color:#ff7f2a;stop-opacity:1"
         offset="0.56573588" />
      <stop
         id="stop993"
         style="stop-color:#ff6600;stop-opacity:1"
         offset="1" />
    </linearGradient>
    <linearGradient
       id="linearGradient22547">
      <stop
         id="stop22541"
         style="stop-color:#adcdff;stop-opacity:1"
         offset="0" />
      <stop
         id="stop22543"
         style="stop-color:#7fd4ee"
         offset="0.25667763" />
      <stop
         id="stop22545"
         style="stop-color:#00aade;stop-opacity:1"
         offset="1" />
    </linearGradient>
    <linearGradient
       id="linearGradient18480">
      <stop
         id="stop18476"
         style="stop-color:#f7f9fb;stop-opacity:1"
         offset="0" />
      <stop
         id="stop18478"
         style="stop-color:#17b1e1;stop-opacity:1"
         offset="1" />
    </linearGradient>
    <linearGradient
       id="linearGradient9557">
      <stop
         id="stop9551"
         style="stop-color:#ffffff"
         offset="0" />
      <stop
         id="stop9553"
         style="stop-color:#7fd4ee"
         offset="0.2548373" />
      <stop
         id="stop9555"
         style="stop-color:#a80030;stop-opacity:1"
         offset="1" />
    </linearGradient>
    <linearGradient
       id="linearGradient1201">
      <stop
         id="stop1197"
         style="stop-color:#9cdcef;stop-opacity:1"
         offset="0" />
      <stop
         id="stop1199"
         style="stop-color:#00aade;stop-opacity:1"
         offset="1" />
    </linearGradient>
    <linearGradient
       id="linearGradient1183">
      <stop
         id="stop1179"
         style="stop-color:#7f7f7f;stop-opacity:1"
         offset="0" />
      <stop
         id="stop1181"
         style="stop-color:#000000"
         offset="1" />
    </linearGradient>
    <linearGradient
       id="linearGradient1177">
      <stop
         id="stop1171"
         style="stop-color:#ffffff;stop-opacity:1"
         offset="0" />
      <stop
         id="stop1173"
         style="stop-color:#d5e2ec"
         offset="0.49903482" />
      <stop
         id="stop1175"
         style="stop-color:#d5e2ec"
         offset="1" />
    </linearGradient>
    <linearGradient
       inkscape:collect="always"
       id="linearGradient1147">
      <stop
         style="stop-color:#000000;stop-opacity:1;"
         offset="0"
         id="stop1143" />
      <stop
         style="stop-color:#000000;stop-opacity:0;"
         offset="1"
         id="stop1145" />
    </linearGradient>
    <linearGradient
       id="linearGradient1141">
      <stop
         id="stop1137"
         style="stop-color:#f7f9fb;stop-opacity:1"
         offset="0" />
      <stop
         id="stop1139"
         style="stop-color:#0fafdf;stop-opacity:1"
         offset="1" />
    </linearGradient>
    <linearGradient
       x1="118.25153"
       y1="254.24648"
       x2="291.87143"
       y2="254.24648"
       id="linearGradient4386"
       xlink:href="#linearGradient1147"
       gradientUnits="userSpaceOnUse" />
    <linearGradient
       id="linearGradient4380">
      <stop
         id="stop4382"
         style="stop-color:#000000"
         offset="0" />
      <stop
         id="stop4384"
         style="stop-color:#000000;stop-opacity:0"
         offset="1" />
    </linearGradient>
    <filter
       color-interpolation-filters="sRGB"
       id="filter4266">
      <feGaussianBlur
         id="feGaussianBlur4268"
         stdDeviation="1.308628" />
    </filter>
    <linearGradient
       x1="174.28104"
       y1="164.16707"
       x2="236.40213"
       y2="253.70575"
       id="linearGradient4162"
       xlink:href="#linearGradient3694"
       gradientUnits="userSpaceOnUse"
       gradientTransform="matrix(3.7524926,0,0,3.7524926,-424.92228,-686.03042)" />
    <linearGradient
       id="linearGradient3694">
      <stop
         id="stop3702"
         style="stop-color:#b7b7b7"
         offset="0" />
      <stop
         id="stop3698"
         style="stop-color:#000000"
         offset="1" />
    </linearGradient>
    <filter
       color-interpolation-filters="sRGB"
       id="filter4223"
       x="-0.018858854"
       y="-0.059311241"
       width="1.0368288"
       height="1.1154076">
      <feGaussianBlur
         id="feGaussianBlur4225"
         stdDeviation="4.6672006" />
    </filter>
    <linearGradient
       x1="33.526711"
       y1="441.98093"
       x2="159.24117"
       y2="581.41302"
       id="linearGradient3966"
       xlink:href="#linearGradient3743"
       gradientUnits="userSpaceOnUse" />
    <linearGradient
       id="linearGradient3743">
      <stop
         id="stop3745"
         style="stop-color:#ffffff"
         offset="0" />
      <stop
         id="stop3751"
         style="stop-color:#7fd4ee"
         offset="0.5" />
      <stop
         id="stop3747"
         style="stop-color:#00aade"
         offset="1" />
    </linearGradient>
    <linearGradient
       x1="245.51741"
       y1="426.95151"
       x2="305.39166"
       y2="531.48969"
       id="linearGradient3968"
       xlink:href="#linearGradient3743"
       gradientUnits="userSpaceOnUse"
       gradientTransform="translate(-0.38239847,2.6767893)" />
    <linearGradient
       x1="440.52084"
       y1="455.93307"
       x2="486.95523"
       y2="535.30469"
       id="linearGradient3972"
       xlink:href="#linearGradient3743"
       gradientUnits="userSpaceOnUse"
       gradientTransform="translate(-0.50986462,6.1183754)" />
    <linearGradient
       x1="601.53467"
       y1="434.94836"
       x2="668.81775"
       y2="543.35834"
       id="linearGradient3970"
       xlink:href="#linearGradient3743"
       gradientUnits="userSpaceOnUse" />
    <filter
       color-interpolation-filters="sRGB"
       id="filter3729">
      <feGaussianBlur
         stdDeviation="6.4154088"
         id="feGaussianBlur3731" />
    </filter>
    <linearGradient
       x1="965.02625"
       y1="17.489901"
       x2="1557.8665"
       y2="663.80927"
       id="linearGradient3737"
       xlink:href="#linearGradient3652"
       gradientUnits="userSpaceOnUse"
       gradientTransform="translate(-1581.6355,147.78233)" />
    <linearGradient
       id="linearGradient3652">
      <stop
         id="stop3654"
         style="stop-color:#ffffff"
         offset="0" />
      <stop
         id="stop3662"
         style="stop-color:#d5e2ec"
         offset="0.49903482" />
      <stop
         id="stop3656"
         style="stop-color:#d5e2ec"
         offset="1" />
    </linearGradient>
    <linearGradient
       inkscape:collect="always"
       xlink:href="#linearGradient1141"
       id="linearGradient1205"
       gradientUnits="userSpaceOnUse"
       gradientTransform="translate(-375.1972,-174.12697)"
       x1="310.98343"
       y1="264.14804"
       x2="152.23482"
       y2="264.14804" />
    <filter
       style="color-interpolation-filters:sRGB"
       inkscape:label="Blur"
       id="filter28781"
       x="-0.012630529"
       y="-0.023174778"
       width="1.025261"
       height="1.0463496">
      <feGaussianBlur
         stdDeviation="0.61 0.61"
         result="blur"
         id="feGaussianBlur28779" />
    </filter>
    <filter
       style="color-interpolation-filters:sRGB"
       inkscape:label="Blur"
       id="filter28837"
       x="-0.0107685"
       y="-0.0086515071"
       width="1.0215369"
       height="1.017303">
      <feGaussianBlur
         stdDeviation="0.61 0.61"
         result="blur"
         id="feGaussianBlur28835" />
    </filter>
    <clipPath
       clipPathUnits="userSpaceOnUse"
       id="clipPath7965">
      <rect
         style="opacity:1;fill:#d4d4d4;fill-opacity:1;stroke-width:1.65668"
         id="rect7967"
         width="1080"
         height="1919.9999"
         x="0"
         y="0" />
    </clipPath>
  </defs>
  <sodipodi:namedview
     id="base"
     pagecolor="#616161"
     bordercolor="#cbcbcb"
     borderopacity="1"
     inkscape:pageopacity="0"
     inkscape:pageshadow="2"
     inkscape:zoom="0.29414062"
     inkscape:cx="719.04382"
     inkscape:cy="1280"
     inkscape:document-units="px"
     inkscape:current-layer="layer1"
     inkscape:document-rotation="0"
     showgrid="false"
     inkscape:window-width="1080"
     inkscape:window-height="1067"
     inkscape:window-x="-62"
     inkscape:window-y="296"
     inkscape:window-maximized="0"
     inkscape:snap-bbox="true"
     inkscape:snap-page="true"
     inkscape:snap-global="false"
     inkscape:showpageshadow="false"
     borderlayer="false"
     inkscape:pagecheckerboard="0"
     inkscape:snap-grids="false"
     inkscape:snap-to-guides="false"
     width="1440px" />
  <metadata
     id="metadata66">
    <rdf:RDF>
      <cc:Work
         rdf:about="">
        <dc:format>image/svg+xml</dc:format>
        <dc:type
           rdf:resource="http://purl.org/dc/dcmitype/StillImage" />
      </cc:Work>
    </rdf:RDF>
  </metadata>
  <g
     inkscape:label="Layer 1"
     inkscape:groupmode="layer"
     id="layer1">
    <rect
       style="display:inline;fill:#43086e;fill-opacity:1;stroke:none;stroke-width:2.27303;stroke-opacity:1"
       id="rect3310"
       width="1440"
       height="2560"
       x="0"
       y="0" />
    <g
       id="g7963"
       clip-path="url(#clipPath7965)"
       transform="matrix(1.3441526,0,0,1.3442258,-11.684849,-20.913588)"
       inkscape:export-filename="/home/yal/Pictures/Wallpapers/Debian/Xfce_Portrait_CelloTurquoise.png"
       inkscape:export-xdpi="96"
       inkscape:export-ydpi="96"
       style="fill:#bb90e8;fill-opacity:1">
      <path
         i:knockout="Off"
         fill="#a80030"
         d="m 955.53848,1921.5704 c 1.34004,36.5851 -10.49711,54.3627 -21.20268,85.7993 l -19.2523,9.7368 c -15.73815,31.1034 1.56345,19.7462 -9.70794,44.4745 -24.59737,22.2147 -74.53684,69.4905 -90.52823,73.8213 -11.68824,-0.2572 7.9063,-14.0222 10.46738,-19.3979 -32.89081,22.9566 -26.39917,34.4651 -76.71084,48.4419 l -1.45914,-3.3465 c -124.02958,59.3599 -296.33096,-58.2544 -294.06791,-218.7079 -1.31035,10.1758 -3.76706,7.6318 -6.5066,11.7204 -6.40258,-82.5436 37.49181,-165.4507 111.52249,-199.3556 72.40762,-36.4336 157.29259,-21.5028 209.12311,27.6964 -28.46882,-37.9481 -85.18284,-78.1826 -152.34943,-74.4574 -65.82669,1.0902 -127.42459,43.6264 -147.97206,89.8272 -33.7098,21.5787 -37.64065,83.2252 -52.32162,94.5217 -19.78826,147.7941 37.17905,211.6213 133.55881,286.7449 15.12781,10.3879 4.25848,11.9779 6.28345,19.8825 -32.01247,-15.2337 -61.31515,-38.2509 -85.43612,-66.4317 12.80489,19.0347 26.60766,37.5392 44.46001,52.0764 -30.21075,-10.3729 -70.54643,-74.3969 -82.29426,-77.0014 52.03889,94.7639 211.10361,166.1926 294.44012,130.7432 -38.56384,1.4538 -87.53544,0.8027 -130.83407,-15.476 -18.23971,-9.5247 -42.94139,-29.2256 -38.51915,-32.9053 113.69626,43.1721 231.11491,32.6782 329.47517,-47.5031 25.04411,-19.8371 52.38131,-53.5603 60.28766,-54.0145 -11.89684,18.2017 2.03962,8.7526 -7.10245,24.8191 24.89536,-40.9008 -10.85449,-16.657 25.75895,-70.6262 l 13.51968,18.9285 c -5.06246,-33.9805 41.46709,-75.1993 36.73229,-128.8958 10.6758,-16.415 11.8968,17.6868 0.581,55.453 15.7082,-41.9002 4.1539,-48.6387 8.1741,-83.225 4.333,11.6297 10.0953,23.9711 13.0285,36.2521 -10.244,-40.5072 10.4671,-68.1883 15.619,-91.7355 -5.0922,-2.2714 -15.7977,17.8988 -18.2695,-29.9222 0.3722,-20.7761 5.7028,-10.8877 7.7426,-16.006 -3.9904,-2.3473 -14.5172,-18.2774 -20.9047,-48.8205 4.6007,-7.1929 12.388,18.6104 18.7012,19.6553 -4.0649,-24.2739 -11.048,-42.7937 -11.3459,-61.4345 -18.463,-39.2199 -6.5364,5.2394 -21.4855,-16.8388 -19.65428,-62.2975 16.2891,-14.4615 18.7309,-42.7483 29.7491,43.8386 46.7084,111.8299 54.5255,139.9805 -5.9558,-34.3288 -15.5596,-67.5977 -27.3074,-99.7762 9.0677,3.8918 -14.5768,-70.611 11.7775,-21.2758 -28.1262,-105.167 -120.27747,-203.4441 -205.07315,-249.5387 10.34813,9.6458 23.43605,21.7602 18.76066,23.6682 -42.19668,-25.5157 -34.78174,-27.5297 -40.82686,-38.3115 -34.3205,-14.219 -36.61332,1.1661 -59.31995,0.03 -64.76938,-34.9497 -77.24675,-31.2398 -136.84953,-53.106 l 2.70988,12.9016 c -42.89651,-14.537 -49.98395,5.4818 -96.33509,0.03 -2.81411,-2.2258 14.85978,-8.1165 29.42172,-10.2517 -41.48231,5.5727 -39.54667,-8.3286 -80.13546,1.5295 9.99098,-7.1324 20.59215,-11.872 31.2532,-17.9291 -33.81402,2.0897 -80.76067,20.0188 -66.27329,3.6948 -55.16575,25.0462 -153.15356,60.1927 -208.14041,112.6325 l -1.72717,-11.7509 c -25.19311,30.7552 -109.86977,91.8565 -116.61469,131.7276 l -6.74501,1.59 c -13.08793,22.5777 -21.58982,48.154 -31.982583,71.368 -17.138018,29.7254 -25.133719,11.4481 -22.691718,16.112 -33.72476,69.536 -50.505311,127.957 -64.9630129,175.8992 10.3036709,15.673 0.252865,94.3702 4.1392529,157.3493 -16.9143795,311.0945 214.677191,613.1186 467.828641,682.8363 37.10466,13.5225 92.27019,13.0379 139.20208,14.3704 -55.3593,-16.112 -62.50625,-8.5253 -116.46589,-27.6507 -38.90631,-18.656 -47.42316,-39.9317 -74.99843,-64.2662 l 10.91401,19.61 c -54.04882,-19.4585 -31.43171,-24.0771 -75.41543,-38.2357 l 11.65844,-15.4607 c -17.52492,-1.3629 -46.41057,-30.0131 -54.3019,-45.9283 l -19.17771,0.7724 c -23.01922,-28.8623 -35.30313,-49.7139 -34.39487,-65.8714 l -6.19397,11.2361 c -7.01299,-12.2506 -84.7362,-108.3927 -44.41548,-86.0114 -7.48931,-6.9355 -17.45054,-11.3118 -28.24542,-31.2851 l 8.20413,-9.5249 c -19.37113,-25.3946 -35.70504,-57.9365 -34.45431,-68.7788 10.34814,14.2039 17.52497,16.8691 24.64208,19.3071 -49.00132,-123.6261 -51.75583,-6.799 -88.845573,-125.837 l 7.831733,-0.6361 c -6.00045,-9.2523 -9.678192,-19.2314 -14.502337,-29.059 l 3.424663,-34.6014 c -35.2585,-41.431 -9.85691,-176.3385 -4.749757,-250.3113 3.499023,-30.0737 29.436511,-62.1007 49.135371,-112.3294 l -12.00095,-2.0899 c 22.95954,-40.7039 131.05746,-163.5275 181.14593,-157.2281 24.25494,-30.9822 -4.8244,-0.1217 -9.57411,-7.9045 53.28954,-56.074 70.04024,-39.6136 105.99856,-49.7141 38.75722,-23.3955 -33.27821,9.1463 -14.90444,-8.919 67.04736,-17.3991 47.49746,-39.5835 134.94359,-48.4117 9.23169,5.3303 -21.39614,8.2377 -29.07912,15.1579 55.83564,-27.8022 176.72365,-21.4573 255.28073,15.4155 91.07914,43.3236 193.47431,171.326 197.5242,291.7571 l 4.6008,1.2569 c -2.32272,47.8817 7.20672,103.259 -9.33559,154.1088 l 11.18203,-24.0923"
         id="path14-3-3"
         style="display:inline;opacity:1;mix-blend-mode:normal;fill:#bb90e8;fill-opacity:1;stroke-width:0.516376"
         inkscape:label="Debian"
         inkscape:export-filename="/home/yal/Pictures/Wallpapers/Debian/Xfce_Portrait_CelloTurquoise_1920x1080.png"
         inkscape:export-xdpi="68.269997"
         inkscape:export-ydpi="68.269997" />
      <g
         id="g28805"
         inkscape:label="Mascot"
         transform="rotate(-11.450262,223.35552,1638.7829)"
         style="fill:#bb90e8;fill-opacity:1;stroke:none"
         inkscape:export-filename="/home/yal/Pictures/Wallpapers/Debian/Xfce_Portrait_CelloTurquoise_1920x1080.png"
         inkscape:export-xdpi="68.269997"
         inkscape:export-ydpi="68.269997">
        <g
           id="g1248-8"
           style="display:inline;fill:#bb90e8;fill-opacity:1;stroke:#ffaa70;stroke-width:0.268145;stroke-opacity:1"
           transform="matrix(3.7452595,-0.23287817,0.23287817,3.7452595,-256.38548,353.43555)">
          <path
             d="m 83.989864,242.49576 c -0.558944,0.4067 5.293867,3.24862 15.944584,6.11025 10.651372,2.86155 25.991772,11.60313 25.115562,13.4477 -2.68952,5.0505 -3.90882,10.8472 -1.35068,20.1546 0.45608,1.63761 -4.36898,5.20614 -3.66753,7.67534 0.56217,1.87515 5.56335,-2.65125 6.25972,-1.97527 0.54081,1.30466 -1.8797,8.57656 -0.48324,8.8938 1.01263,0.16425 8.49531,-9.37951 9.01158,-9.30302 14.68972,2.45377 32.68194,-3.13136 33.02072,-3.31261 -0.0431,-0.07 14.0264,4.53531 15.08265,3.63232 2.50376,-3.52534 -6.48961,-6.88166 -5.31356,-8.83634 0.49622,-1.00795 10.71492,2.16304 11.03488,0.89652 0.42268,-2.17568 -5.31277,-5.88839 -6.25741,-7.08627 -0.83037,-1.1097 -1.21248,-3.0199 0.36618,-4.45251 1.57933,-1.43269 18.44487,-10.50358 17.0247,-15.65891 -2.51483,-9.37578 -23.82511,-7.26465 -24.27093,-8.02367 -0.20959,-0.35651 -0.80514,-13.76646 -6.67853,-10.51874 -3.62788,1.90894 0.55271,9.96685 0.9399,11.02805 0.35697,0.97692 -1.57661,1.11131 -1.99559,0.7163 -0.93549,-0.88303 -4.72829,-9.36284 -7.67373,-7.38409 -4.10168,3.00286 1.0238,10.07773 0.17487,10.43759 -1.51808,1.12482 -1.13786,3.34977 -2.21475,5.33777 -1.76319,3.3772 -18.53405,0.91315 -23.80493,1.26987 -3.85803,0.26698 -7.10514,3.86833 -7.50228,3.51326 -5.26349,-4.06846 -15.95308,-10.96365 -26.868141,-12.30336 -6.133173,-0.84509 -15.548081,-4.36327 -15.894045,-4.25858 z m 109.026786,-5.35417 c -0.33341,0.19781 -0.81289,7.71891 -0.0809,7.96508 0.66937,0.37816 0.71367,-7.61282 0.10405,-7.94721 -0.0103,-0.01 -0.0121,-0.0243 -0.0232,-0.0179 z m 5.36675,0.33194 c -0.80264,0.0885 -4.19389,7.46202 -3.11643,8.0637 0.66936,0.37815 3.47552,-7.82649 3.18069,-8.05109 -0.0202,-0.0128 -0.0384,-0.0154 -0.0643,-0.0126 z m -19.63108,10.98372 c 1.01161,-0.13027 1.94668,0.68717 2.095,1.83894 0.14831,1.15177 -0.54652,2.19997 -1.55812,2.33024 -1.01161,0.13027 -1.94931,-0.70771 -2.09763,-1.85948 -0.14831,-1.15178 0.54914,-2.17943 1.56075,-2.3097 z m -3.94625,1.78174 c 1.2107,3.25882 2.55167,4.1648 6.18278,3.58831 -4.09145,4.85154 -7.83812,-2.06632 -6.18278,-3.58831 z m 10.94905,7.52605 c 0.28572,-0.0605 0.51258,-0.0437 0.65518,0.0618 1.91302,0.42712 -7.30852,5.15793 -7.43632,4.67397 -0.14088,-0.32678 4.78104,-4.31154 6.78114,-4.73574 z m 1.47683,2.0647 c 0.099,-0.0208 0.19616,-0.001 0.27492,0.0272 1.9459,1.49185 -4.75167,6.21766 -4.68802,6.07384 -0.62423,-0.27538 2.9275,-5.79141 4.41308,-6.10108 z"
             id="path1185-7"
             style="display:inline;fill:#bb90e8;fill-opacity:1;fill-rule:evenodd;stroke:none;stroke-width:0.177683;stroke-opacity:1" />
        </g>
      </g>
    </g>
  </g>
</svg>
